misclases02\jiTerreno$2.class
misclases02\jdlgMenu$2.class
misclases02\jiTerreno$8.class
misclases02\jiTerreno.class
misclases02\jiTerreno$7.class
misclases02\jdlgMenu$3.class
misclases02\jiTerreno$10.class
misclases02\jiTerreno$3.class
misclases02\jiTerreno$11.class
misclases02\jiTerreno$5.class
misclases02\Terreno.class
misclases02\jiTerreno$6.class
misclases02\jdlgMenu.class
misclases02\jiTerreno$4.class
misclases02\jdlgMenu$1.class
misclases02\jdlgMenu$3$1.class
misclases02\jiTerreno$9.class
misclases02\jiTerreno$1.class
